{
    "date": "2024-03-18T09:15:45.908407+00:00",
    "errors": [
      {
        "code": "schema-error",
        "description": "Provided schema is not valid.",
        "message": "Schema is not valid: 'UNVALID SCHEMA NAME' does not match '^([-a-z0-9._/])+$' at property 'name'",
        "name": "",
        "note": "'UNVALID SCHEMA NAME' does not match '^([-a-z0-9._/])+$' at property 'name'",
        "tags": [],
        "title": "Schema Error",
        "type": "schema-error"
      }
    ],
    "stats": {
      "errors": 1,
      "seconds": 0.001,
      "tasks": 0,
      "warnings": 0
    },
    "tasks": [],
    "valid": false,
    "warnings": [],
    "time": 0.001,
    "version": "5.16.1"
  }